Year,Yoshino peak bloom date,festival_start,festival_end,peak_date,peak_month
1921,79,NA,NA,1921-03-21,3
1922,97,NA,NA,1922-04-08,4
1923,99,NA,NA,1923-04-10,4
1924,104,NA,NA,1924-04-14,4
1925,86,NA,NA,1925-03-28,3
1926,101,NA,NA,1926-04-12,4
1927,79,NA,NA,1927-03-21,3
1928,99,NA,NA,1928-04-09,4
1929,90,NA,NA,1929-04-01,4
1930,91,NA,NA,1930-04-02,4
1931,101,NA,NA,1931-04-12,4
1932,106,NA,NA,1932-04-16,4
1933,99,NA,NA,1933-04-10,4
1934,105,1934-04-20,1934-04-22,1934-04-16,4
1935,91,1935-04-04,1935-04-05,1935-04-02,4
1936,98,1936-04-09,1936-04-10,1936-04-08,4
1937,104,1937-04-11,1937-04-12,1937-04-15,4
1938,84,1938-03-27,1938-03-28,1938-03-26,3
1939,89,1939-04-01,1939-04-02,1939-03-31,3
1940,104,1940-04-14,1940-04-15,1940-04-14,4
1941,102,1941-04-13,1941-04-14,1941-04-13,4
1942,95,NA,NA,1942-04-06,4
1943,94,NA,NA,1943-04-05,4
1944,100,NA,NA,1944-04-10,4
1945,79,NA,NA,1945-03-21,3
1946,82,NA,NA,1946-03-24,3
1947,102,1947-04-13,1947-04-14,1947-04-13,4
1948,88,1948-04-11,1948-04-12,1948-03-29,3
1949,88,1949-04-03,1949-04-04,1949-03-30,3
1950,99,1950-04-09,1950-04-10,1950-04-10,4
1951,96,1951-04-08,1951-04-09,1951-04-07,4
1952,100,1952-04-06,1952-04-07,1952-04-10,4
1953,86,1953-04-12,1953-04-13,1953-03-28,3
1954,96,1954-04-04,1954-04-05,1954-04-07,4
1955,92,1955-04-03,1955-04-04,1955-04-03,4
1956,97,1956-04-08,1956-04-09,1956-04-07,4
1957,98,1957-04-07,1957-04-08,1957-04-09,4
1958,108,1958-03-30,1958-03-31,1958-04-19,4
1959,96,1959-04-08,1959-04-13,1959-04-07,4
1960,105,1960-04-06,1960-04-11,1960-04-15,4
1961,92,1961-04-05,1961-04-10,1961-04-03,4
1962,97,1962-04-04,1962-04-09,1962-04-08,4
1963,93,1963-04-03,1963-04-08,1963-04-04,4
1964,102,1964-04-08,1964-04-13,1964-04-12,4
1965,105,1965-04-07,1965-04-12,1965-04-16,4
1966,95,1966-04-13,1966-04-18,1966-04-06,4
1967,96,1967-04-05,1967-04-10,1967-04-07,4
1968,90,1968-04-02,1968-04-08,1968-03-31,3
1969,99,1969-04-09,1969-04-14,1969-04-10,4
1970,106,1970-04-08,1970-04-13,1970-04-17,4
1971,98,1971-03-31,1971-04-05,1971-04-09,4
1972,102,1972-04-04,1972-04-09,1972-04-12,4
1973,101,1973-04-07,1973-04-14,1973-04-12,4
1974,93,1974-03-31,1974-04-06,1974-04-04,4
1975,93,1975-04-01,1975-04-06,1975-04-04,4
1976,83,1976-04-06,1976-04-11,1976-03-24,3
1977,85,1977-03-29,1977-04-03,1977-03-27,3
1978,102,1978-04-04,1978-04-09,1978-04-13,4
1979,92,1979-04-03,1979-04-08,1979-04-03,4
1980,97,1980-03-25,1980-03-30,1980-04-07,4
1981,93,1981-03-31,1981-04-05,1981-04-04,4
1982,97,1982-03-29,1982-04-04,1982-04-08,4
1983,97,1983-04-05,1983-04-11,1983-04-08,4
1984,94,1984-04-02,1984-04-08,1984-04-04,4
1985,97,1985-04-08,1985-04-14,1985-04-08,4
1986,92,1986-04-07,1986-04-13,1986-04-03,4
1987,87,1987-04-06,1987-04-12,1987-03-29,3
1988,91,1988-04-04,1988-04-11,1988-04-01,4
1989,88,1989-04-03,1989-04-10,1989-03-30,3
1990,74,1990-04-02,1990-04-09,1990-03-16,3
1991,88,1991-04-01,1991-04-08,1991-03-30,3
1992,98,1992-04-06,1992-04-13,1992-04-08,4
1993,101,1993-03-29,1993-04-05,1993-04-12,4
1994,95,1994-04-04,1994-04-11,1994-04-06,4
1995,92,1995-03-27,1995-04-10,1995-04-03,4
1996,95,1996-04-01,1996-04-15,1996-04-05,4
1997,85,1997-03-31,1997-04-14,1997-03-27,3
1998,86,1998-03-30,1998-04-13,1998-03-28,3
1999,95,1999-03-29,1999-04-12,1999-04-06,4
2000,77,2000-03-27,2000-04-10,2000-03-18,3
2001,96,2001-03-26,2001-04-09,2001-04-07,4
2002,92,2002-03-24,2002-04-09,2002-04-03,4
2003,92,2003-03-23,2003-04-08,2003-04-03,4
2004,91,2004-03-28,2004-04-12,2004-04-01,4
2005,99,2005-03-27,2005-04-11,2005-04-10,4
2006,89,2006-03-26,2006-04-10,2006-03-31,3
2007,91,2007-04-01,2007-04-16,2007-04-02,4
2008,89,2008-03-30,2008-04-14,2008-03-30,3
2009,91,2009-03-29,2009-04-13,2009-04-02,4
2010,90,2010-03-28,2010-04-12,2010-04-01,4
2011,88,2011-03-27,2011-04-11,2011-03-30,3
2012,80,2012-03-21,2012-04-28,2012-03-21,3
2013,99,2013-03-21,2013-04-15,2013-04-10,4
2014,100,2014-03-21,2014-04-14,2014-04-11,4
2015,100,2015-03-21,2015-04-13,2015-04-11,4
2016,85,2016-03-21,2016-04-18,2016-03-26,3
