year,month,DATE,PRCP,Temp Category,Value
2016,3,2016-03-22,0,TMAX,12.2
2016,3,2016-03-23,0,TMAX,17.2
2016,3,2016-03-24,0,TMAX,24.4
2016,3,2016-03-25,0,TMAX,25.6
2016,3,2016-03-26,0.5,TMAX,23.3
2016,3,2016-03-27,0,TMAX,17.2
2016,3,2016-03-28,10.4,TMAX,13.9
2016,3,2016-03-29,1,TMAX,21.1
2016,3,2016-03-30,0,TMAX,16.7
2016,3,2016-03-31,0,TMAX,18.3
2016,4,2016-04-01,0,TMAX,23.3
2016,4,2016-04-02,2.5,TMAX,28.9
2016,4,2016-04-03,3,TMAX,17.2
2016,4,2016-04-04,0.5,TMAX,12.2
2016,4,2016-04-05,2,TMAX,22.2
2016,4,2016-04-06,0,TMAX,8.3
2016,4,2016-04-07,1,TMAX,13.9
2016,4,2016-04-08,16.3,TMAX,17.8
2016,4,2016-04-09,2,TMAX,12.2
2016,4,2016-04-10,0.8,TMAX,10
2016,4,2016-04-11,0,TMAX,11.7
2016,4,2016-04-12,0.8,TMAX,23.3
2016,4,2016-04-13,0,TMAX,18.3
2016,4,2016-04-14,0,TMAX,15.6
2016,4,2016-04-15,0,TMAX,18.3
2016,4,2016-04-16,0,TMAX,18.9
2016,4,2016-04-17,0,TMAX,22.8
2015,3,2015-03-23,0,TMAX,NA
2015,3,2015-03-24,0,TMAX,10
2015,3,2015-03-25,0,TMAX,8.3
2015,3,2015-03-26,0,TMAX,11.7
2015,3,2015-03-27,15,TMAX,24.4
2015,3,2015-03-28,0,TMAX,10.6
2015,3,2015-03-29,0,TMAX,2.2
2015,3,2015-03-30,0,TMAX,8.3
2015,3,2015-03-31,0,TMAX,17.8
2015,4,2015-04-01,0,TMAX,21.1
2015,4,2015-04-02,0,TMAX,15.6
2015,4,2015-04-03,0,TMAX,22.8
2015,4,2015-04-04,4.6,TMAX,21.7
2015,4,2015-04-05,0,TMAX,15
2015,4,2015-04-06,0,TMAX,19.4
2015,4,2015-04-07,0.8,TMAX,25
2015,4,2015-04-08,6.9,TMAX,22.8
2015,4,2015-04-09,1.8,TMAX,9.4
2015,4,2015-04-10,1,TMAX,8.9
2015,4,2015-04-11,0.5,TMAX,18.3
2015,4,2015-04-12,0,TMAX,19.4
2014,3,2014-03-22,0,TMAX,12.2
2014,3,2014-03-23,0,TMAX,22.2
2014,3,2014-03-24,0,TMAX,8.3
2014,3,2014-03-25,0,TMAX,5
2014,3,2014-03-26,2.8,TMAX,2.2
2014,3,2014-03-27,0,TMAX,5
2014,3,2014-03-28,0,TMAX,10.6
2014,3,2014-03-29,1.3,TMAX,20
2014,3,2014-03-30,23.1,TMAX,16.7
2014,3,2014-03-31,22.4,TMAX,9.4
2014,4,2014-04-01,0,TMAX,21.1
2014,4,2014-04-02,0,TMAX,20
2014,4,2014-04-03,0,TMAX,19.4
2014,4,2014-04-04,0,TMAX,20.6
2014,4,2014-04-05,0.3,TMAX,16.1
2014,4,2014-04-06,0,TMAX,15.6
2014,4,2014-04-07,0,TMAX,16.7
2014,4,2014-04-08,12.2,TMAX,14.4
2014,4,2014-04-09,0,TMAX,22.8
2014,4,2014-04-10,0,TMAX,21.1
2014,4,2014-04-11,0,TMAX,22.2
2014,4,2014-04-12,0,TMAX,27.2
2014,4,2014-04-13,0,TMAX,25
2013,3,2013-03-22,0,TMAX,4.4
2013,3,2013-03-23,0,TMAX,16.7
2013,3,2013-03-24,0,TMAX,12.8
2013,3,2013-03-25,10.7,TMAX,6.7
2013,3,2013-03-27,NA,TMAX,11.1
2013,3,2013-03-28,0,TMAX,11.7
2013,3,2013-03-29,0,TMAX,10
2013,3,2013-03-30,0,TMAX,14.4
2013,3,2013-03-31,0,TMAX,16.7
2013,4,2013-04-01,0.5,TMAX,14.4
2013,4,2013-04-02,0,TMAX,19.4
2013,4,2013-04-03,0,TMAX,10
2013,4,2013-04-04,0,TMAX,12.2
2013,4,2013-04-05,6.9,TMAX,10
2013,4,2013-04-06,0,TMAX,19.4
2013,4,2013-04-07,0,TMAX,15
2013,4,2013-04-08,0,TMAX,22.2
2013,4,2013-04-09,0,TMAX,27.8
2013,4,2013-04-10,0,TMAX,30.6
2013,4,2013-04-11,0,TMAX,33.9
2013,4,2013-04-12,14.2,TMAX,31.1
2013,4,2013-04-13,6.1,TMAX,23.3
2013,4,2013-04-14,0,TMAX,21.7
2012,3,2012-03-22,0,TMAX,23.3
2012,3,2012-03-23,0,TMAX,26.1
2012,3,2012-03-24,0,TMAX,30.6
2012,3,2012-03-25,9.1,TMAX,16.7
2012,3,2012-03-26,0,TMAX,16.7
2012,3,2012-03-27,0,TMAX,16.7
2012,3,2012-03-28,0,TMAX,15.6
2012,3,2012-03-29,0,TMAX,23.9
2012,3,2012-03-30,0,TMAX,18.9
2012,3,2012-03-31,0,TMAX,14.4
2012,4,2012-04-01,0,TMAX,18.9
2012,4,2012-04-02,3.3,TMAX,18.9
2012,4,2012-04-03,0,TMAX,16.7
2012,4,2012-04-04,0,TMAX,23.3
2012,4,2012-04-05,0,TMAX,26.1
2012,4,2012-04-07,0,TMAX,21.1
2012,4,2012-04-08,0,TMAX,22.2
2012,4,2012-04-09,0,TMAX,22.2
2012,4,2012-04-10,0,TMAX,20.6
2012,4,2012-04-11,0,TMAX,20
2012,4,2012-04-12,0,TMAX,13.3
2012,4,2012-04-13,0,TMAX,16.1
2012,4,2012-04-14,0,TMAX,21.1
2012,4,2012-04-15,0,TMAX,25.6
2012,4,2012-04-16,0,TMAX,30
2012,4,2012-04-17,0,TMAX,31.7
2012,4,2012-04-18,0,TMAX,25.6
2012,4,2012-04-19,2,TMAX,15
2012,4,2012-04-20,0,TMAX,22.8
2012,4,2012-04-21,0,TMAX,24.4
2012,4,2012-04-22,4.6,TMAX,28.3
2012,4,2012-04-23,34,TMAX,10
2012,4,2012-04-24,1.5,TMAX,9.4
2012,4,2012-04-25,0,TMAX,17.2
2012,4,2012-04-26,0,TMAX,21.7
2012,4,2012-04-27,0.5,TMAX,19.4
2011,3,2011-03-28,0,TMAX,10
2011,3,2011-03-29,0,TMAX,11.1
2011,3,2011-03-30,0,TMAX,12.8
2011,3,2011-03-31,4.1,TMAX,10.6
2011,4,2011-04-01,4.1,TMAX,6.7
2011,4,2011-04-02,0,TMAX,10.6
2011,4,2011-04-03,1,TMAX,11.1
2011,4,2011-04-04,0,TMAX,16.7
2011,4,2011-04-05,8.4,TMAX,27.8
2011,4,2011-04-06,4.6,TMAX,17.2
2011,4,2011-04-07,0,TMAX,20
2011,4,2011-04-08,0.5,TMAX,22.2
2011,4,2011-04-09,9.9,TMAX,13.3
2011,4,2011-04-10,0,TMAX,11.7
2010,3,2010-03-29,20.8,TMAX,16.7
2010,3,2010-03-30,6.1,TMAX,13.9
2010,3,2010-03-31,0,TMAX,13.3
2010,4,2010-04-01,0,TMAX,22.2
2010,4,2010-04-02,0,TMAX,25
2010,4,2010-04-03,0,TMAX,25.6
2010,4,2010-04-04,0,TMAX,25.6
2010,4,2010-04-05,0,TMAX,25.6
2010,4,2010-04-06,0,TMAX,29.4
2010,4,2010-04-07,0,TMAX,33.3
2010,4,2010-04-08,0,TMAX,32.8
2010,4,2010-04-09,21.1,TMAX,28.9
2010,4,2010-04-10,0,TMAX,13.9
2010,4,2010-04-11,0,TMAX,18.9
2009,3,2009-03-30,0,TMAX,26.1
2009,3,2009-03-31,0,TMAX,16.1
2009,4,2009-04-01,0,TMAX,23.3
2009,4,2009-04-02,5.3,TMAX,20
2009,4,2009-04-03,8.1,TMAX,19.4
2009,4,2009-04-04,0,TMAX,25.6
2009,4,2009-04-05,0,TMAX,20
2009,4,2009-04-06,NA,TMAX,NA
2009,4,2009-04-07,NA,TMAX,NA
2009,4,2009-04-08,0,TMAX,10.6
2009,4,2009-04-09,0,TMAX,14.4
2009,4,2009-04-10,0,TMAX,19.4
2009,4,2009-04-11,4.8,TMAX,25
2009,4,2009-04-12,5.3,TMAX,23.9
2008,3,2008-03-31,0,TMAX,9.4
2008,4,2008-04-01,2.3,TMAX,12.8
2008,4,2008-04-02,0.8,TMAX,23.9
2008,4,2008-04-03,0,TMAX,15
2008,4,2008-04-04,19.6,TMAX,10.6
2008,4,2008-04-05,0,TMAX,18.9
2008,4,2008-04-06,8.6,TMAX,17.8
2008,4,2008-04-07,1.8,TMAX,9.4
2008,4,2008-04-08,0,TMAX,8.9
2008,4,2008-04-09,0,TMAX,11.7
2008,4,2008-04-10,0,TMAX,20.6
2008,4,2008-04-11,0,TMAX,25
2008,4,2008-04-12,3.6,TMAX,27.8
2008,4,2008-04-13,0.3,TMAX,24.4
2008,4,2008-04-01,2.5,TMAX,NA
2007,4,2007-04-02,0.3,TMAX,17.2
2007,4,2007-04-03,0,TMAX,27.8
2007,4,2007-04-04,11.4,TMAX,25
2007,4,2007-04-05,0.8,TMAX,13.9
2007,4,2007-04-06,0,TMAX,8.3
2007,4,2007-04-07,0.8,TMAX,8.9
2007,4,2007-04-08,0,TMAX,5.6
2007,4,2007-04-09,0,TMAX,7.8
2007,4,2007-04-10,0,TMAX,8.9
2007,4,2007-04-11,0,TMAX,11.1
2007,4,2007-04-12,23.4,TMAX,11.1
2007,4,2007-04-13,2.5,TMAX,17.2
2007,4,2007-04-14,0,TMAX,16.7
2007,4,2007-04-15,40.1,TMAX,16.7
2007,4,2007-04-02,0,TMAX,NA
2007,4,2007-04-03,0,TMAX,NA
2007,4,2007-04-04,9.4,TMAX,NA
2007,4,2007-04-05,0.8,TMAX,NA
2007,4,2007-04-06,0,TMAX,NA
2007,4,2007-04-07,2.3,TMAX,NA
2007,4,2007-04-13,3.6,TMAX,NA
2007,4,2007-04-14,0,TMAX,NA
2007,4,2007-04-15,38.6,TMAX,NA
2007,4,2007-04-02,0.3,TMAX,NA
2007,4,2007-04-04,10.4,TMAX,NA
2007,4,2007-04-05,0.8,TMAX,NA
2007,4,2007-04-08,0,TMAX,NA
2007,4,2007-04-09,0,TMAX,NA
2007,4,2007-04-10,0,TMAX,NA
2007,4,2007-04-11,0,TMAX,NA
2007,4,2007-04-12,22.9,TMAX,NA
2006,3,2006-03-27,0,TMAX,12.8
2006,3,2006-03-28,0,TMAX,15.6
2006,3,2006-03-29,0.3,TMAX,17.8
2006,3,2006-03-30,0,TMAX,18.9
2006,3,2006-03-31,0,TMAX,21.1
2006,4,2006-04-01,0,TMAX,26.1
2006,4,2006-04-02,0,TMAX,26.1
2006,4,2006-04-03,0.3,TMAX,21.1
2006,4,2006-04-04,13.7,TMAX,22.8
2006,4,2006-04-05,0,TMAX,22.8
2006,4,2006-04-06,0,TMAX,12.2
2006,4,2006-04-07,1.8,TMAX,18.3
2006,4,2006-04-08,5.1,TMAX,15.6
2006,4,2006-04-09,14.7,TMAX,15.6
2005,3,2005-03-28,6.6,TMAX,9.4
2005,3,2005-03-29,30.7,TMAX,12.8
2005,3,2005-03-30,0,TMAX,19.4
2005,3,2005-03-31,0,TMAX,20
2005,4,2005-04-01,0,TMAX,12.8
2005,4,2005-04-02,14.5,TMAX,18.3
2005,4,2005-04-03,43.9,TMAX,16.7
2005,4,2005-04-04,0,TMAX,10.6
2005,4,2005-04-05,0,TMAX,18.9
2005,4,2005-04-06,0,TMAX,22.8
2005,4,2005-04-07,0,TMAX,30
2005,4,2005-04-08,7.6,TMAX,24.4
2005,4,2005-04-09,0.5,TMAX,24.4
2005,4,2005-04-10,0,TMAX,19.4
2004,3,2004-03-29,0,TMAX,18.3
2004,3,2004-03-30,0,TMAX,11.7
2004,3,2004-03-31,0.5,TMAX,8.9
2004,4,2004-04-01,10.7,TMAX,10.6
2004,4,2004-04-02,19.3,TMAX,9.4
2004,4,2004-04-03,9.7,TMAX,8.9
2004,4,2004-04-04,1.8,TMAX,12.8
2004,4,2004-04-05,0.5,TMAX,10
2004,4,2004-04-06,0,TMAX,9.4
2004,4,2004-04-07,0,TMAX,16.7
2004,4,2004-04-08,0,TMAX,24.4
2004,4,2004-04-09,1.3,TMAX,11.7
2004,4,2004-04-10,0,TMAX,18.9
2004,4,2004-04-11,0,TMAX,18.3
2003,3,2003-03-24,0,TMAX,18.3
2003,3,2003-03-25,0,TMAX,20
2003,3,2003-03-26,0,TMAX,23.3
2003,3,2003-03-27,10.7,TMAX,25.6
2003,3,2003-03-28,0,TMAX,20
2003,3,2003-03-29,3,TMAX,16.7
2003,3,2003-03-30,9.7,TMAX,24.4
2003,3,2003-03-31,12.4,TMAX,5.6
2003,4,2003-04-01,0,TMAX,7.2
2003,4,2003-04-02,0,TMAX,17.8
2003,4,2003-04-03,0,TMAX,27.8
2003,4,2003-04-04,0,TMAX,29.4
2003,4,2003-04-05,0.5,TMAX,11.7
2003,4,2003-04-06,0,TMAX,16.7
2003,4,2003-04-07,4.1,TMAX,14.4
2001,3,2001-03-27,0,TMAX,3.9
2001,3,2001-03-28,0,TMAX,6.1
2001,3,2001-03-29,0,TMAX,11.7
2001,3,2001-03-30,40.9,TMAX,11.7
2001,3,2001-03-31,0,TMAX,13.3
2001,4,2001-04-01,1.5,TMAX,11.1
2001,4,2001-04-02,0.8,TMAX,9.4
2001,4,2001-04-03,0,TMAX,15
2001,4,2001-04-04,0,TMAX,18.3
2001,4,2001-04-05,0,TMAX,17.2
2001,4,2001-04-06,0,TMAX,20
2001,4,2001-04-07,4.8,TMAX,22.8
2001,4,2001-04-08,0,TMAX,20
2e3,3,2000-03-28,33.5,TMAX,22.8
2e3,3,2000-03-29,2,TMAX,17.2
2e3,3,2000-03-30,0,TMAX,16.7
2e3,3,2000-03-31,0,TMAX,19.4
2e3,4,2000-04-01,0,TMAX,17.2
2e3,4,2000-04-02,0,TMAX,22.2
2e3,4,2000-04-03,1.5,TMAX,22.2
2e3,4,2000-04-04,7.1,TMAX,25
2e3,4,2000-04-05,2,TMAX,17.8
2e3,4,2000-04-06,0,TMAX,14.4
2e3,4,2000-04-07,0,TMAX,28.3
2e3,4,2000-04-08,0,TMAX,24.4
2e3,4,2000-04-09,24.4,TMAX,26.7
1999,3,1999-03-30,0,TMAX,21.1
1999,3,1999-03-31,0,TMAX,20.6
1999,4,1999-04-01,1,TMAX,22.2
1999,4,1999-04-02,5.3,TMAX,17.2
1999,4,1999-04-03,0,TMAX,23.3
1999,4,1999-04-04,0,TMAX,23.3
1999,4,1999-04-05,16.5,TMAX,28.9
1999,4,1999-04-06,0,TMAX,15.6
1999,4,1999-04-07,0,TMAX,20
1999,4,1999-04-08,0,TMAX,24.4
1999,4,1999-04-09,0,TMAX,31.1
1999,4,1999-04-10,8.9,TMAX,21.7
1999,4,1999-04-11,2.8,TMAX,17.8
1998,3,1998-03-31,0,TMAX,32.2
1998,4,1998-04-01,0,TMAX,30
1998,4,1998-04-02,20.8,TMAX,26.1
1998,4,1998-04-03,0,TMAX,26.7
1998,4,1998-04-04,9.4,TMAX,19.4
1998,4,1998-04-05,9.4,TMAX,11.1
1998,4,1998-04-06,0,TMAX,15.6
1998,4,1998-04-07,0,TMAX,17.8
1998,4,1998-04-08,0,TMAX,21.1
1998,4,1998-04-09,2.5,TMAX,26.7
1998,4,1998-04-10,25.4,TMAX,13.3
1998,4,1998-04-11,0,TMAX,15
1998,4,1998-04-12,0,TMAX,18.3
1997,4,1997-04-01,0,TMAX,6.7
1997,4,1997-04-02,0,TMAX,14.4
1997,4,1997-04-03,0,TMAX,20
1997,4,1997-04-04,0.5,TMAX,22.8
1997,4,1997-04-05,0,TMAX,24.4
1997,4,1997-04-06,0,TMAX,17.8
1997,4,1997-04-07,3.8,TMAX,18.9
1997,4,1997-04-08,0,TMAX,21.1
1997,4,1997-04-09,0,TMAX,14.4
1997,4,1997-04-10,0,TMAX,5.6
1997,4,1997-04-11,0,TMAX,9.4
1997,4,1997-04-12,0,TMAX,15
1997,4,1997-04-13,10.7,TMAX,15.6
1996,4,1996-04-02,27.7,TMAX,10
1996,4,1996-04-03,0,TMAX,11.7
1996,4,1996-04-04,0,TMAX,20.6
1996,4,1996-04-05,0.3,TMAX,25.6
1996,4,1996-04-06,0.3,TMAX,10.6
1996,4,1996-04-07,2.3,TMAX,6.1
1996,4,1996-04-08,0,TMAX,5.6
1996,4,1996-04-09,0.3,TMAX,11.7
1996,4,1996-04-10,11.9,TMAX,5.6
1996,4,1996-04-11,1,TMAX,11.1
1996,4,1996-04-12,0,TMAX,21.7
1996,4,1996-04-13,0,TMAX,28.3
1996,4,1996-04-14,0,TMAX,20.6
1995,3,1995-03-28,1.3,TMAX,17.8
1995,3,1995-03-29,0,TMAX,9.4
1995,3,1995-03-30,0.5,TMAX,16.1
1995,3,1995-03-31,0.5,TMAX,15
1995,4,1995-04-01,0,TMAX,12.8
1995,4,1995-04-02,0,TMAX,13.3
1995,4,1995-04-03,0,TMAX,12.2
1995,4,1995-04-04,0.5,TMAX,18.9
1995,4,1995-04-05,0,TMAX,20
1995,4,1995-04-06,0,TMAX,8.3
1995,4,1995-04-07,0,TMAX,17.8
1995,4,1995-04-08,0,TMAX,21.7
1995,4,1995-04-09,1.3,TMAX,26.7
1994,4,1994-04-05,0,TMAX,16.1
1994,4,1994-04-06,0,TMAX,23.9
1994,4,1994-04-07,17.5,TMAX,21.1
1994,4,1994-04-08,0,TMAX,12.8
1994,4,1994-04-09,0,TMAX,14.4
1994,4,1994-04-10,0,TMAX,20.6
1993,3,1993-03-30,4.1,TMAX,14.4
1993,3,1993-03-31,0,TMAX,20.6
1993,4,1993-04-01,7.1,TMAX,18.9
1993,4,1993-04-02,3.3,TMAX,21.1
1993,4,1993-04-03,14,TMAX,13.3
1993,4,1993-04-04,0,TMAX,11.1
1992,4,1992-04-07,0,TMAX,17.2
1992,4,1992-04-08,0,TMAX,22.2
1992,4,1992-04-09,0,TMAX,20.6
1992,4,1992-04-10,0,TMAX,21.1
1992,4,1992-04-11,10.2,TMAX,25
1992,4,1992-04-12,0,TMAX,29.4
1991,4,1991-04-02,0.3,TMAX,15.6
1991,4,1991-04-03,0,TMAX,12.8
1991,4,1991-04-04,0,TMAX,15.6
1991,4,1991-04-05,0,TMAX,20.6
1991,4,1991-04-06,2.3,TMAX,17.8
1991,4,1991-04-07,0,TMAX,25.6
1990,4,1990-04-03,14.7,TMAX,18.9
1990,4,1990-04-04,0.3,TMAX,13.9
1990,4,1990-04-05,1,TMAX,10.6
1990,4,1990-04-06,0.3,TMAX,18.3
1990,4,1990-04-07,17.3,TMAX,10
1990,4,1990-04-08,0.3,TMAX,8.9
1989,4,1989-04-04,0.5,TMAX,22.2
1989,4,1989-04-05,0.5,TMAX,26.1
1989,4,1989-04-06,16.3,TMAX,21.1
1989,4,1989-04-07,0,TMAX,13.9
1989,4,1989-04-08,9.1,TMAX,8.9
1989,4,1989-04-09,2.5,TMAX,10.6
1988,4,1988-04-05,0,TMAX,25
1988,4,1988-04-06,0,TMAX,25.6
1988,4,1988-04-07,11.7,TMAX,23.9
1988,4,1988-04-08,16.3,TMAX,8.9
1988,4,1988-04-09,0,TMAX,12.2
1988,4,1988-04-10,0,TMAX,16.1
1987,4,1987-04-07,0.8,TMAX,8.3
1987,4,1987-04-08,0,TMAX,15
1987,4,1987-04-09,0,TMAX,17.8
1987,4,1987-04-10,0,TMAX,16.1
1987,4,1987-04-11,0,TMAX,22.2
1986,4,1986-04-08,0,TMAX,23.3
1986,4,1986-04-09,0,TMAX,23.3
1986,4,1986-04-10,0,TMAX,20
1986,4,1986-04-11,5.1,TMAX,17.8
1986,4,1986-04-12,0.8,TMAX,16.1
1985,4,1985-04-09,0.5,TMAX,11.7
1985,4,1985-04-10,0,TMAX,6.7
1985,4,1985-04-11,0.3,TMAX,10
1985,4,1985-04-12,0,TMAX,13.3
1985,4,1985-04-13,0,TMAX,22.2
1984,4,1984-04-03,0,TMAX,17.2
1984,4,1984-04-04,0,TMAX,17.2
1984,4,1984-04-05,24.6,TMAX,15.6
1984,4,1984-04-06,0,TMAX,11.7
1984,4,1984-04-07,0,TMAX,11.7
1983,4,1983-04-06,0,TMAX,15.6
1983,4,1983-04-07,2,TMAX,10.6
1983,4,1983-04-08,5.6,TMAX,11.7
1983,4,1983-04-09,7.6,TMAX,17.2
1983,4,1983-04-10,43.2,TMAX,12.2
1982,3,1982-03-30,0,TMAX,15
1982,3,1982-03-31,0,TMAX,20
1982,4,1982-04-01,13.2,TMAX,20.6
1982,4,1982-04-02,0,TMAX,22.8
1982,4,1982-04-03,8.9,TMAX,21.1
1981,4,1981-04-01,0,TMAX,26.1
1981,4,1981-04-02,11.7,TMAX,22.2
1981,4,1981-04-03,0,TMAX,22.8
1981,4,1981-04-04,0,TMAX,28.3
1979,4,1979-04-04,7.4,TMAX,13.3
1979,4,1979-04-05,6.6,TMAX,8.3
1979,4,1979-04-06,0,TMAX,15.6
1979,4,1979-04-07,0,TMAX,11.7
1978,4,1978-04-05,0,TMAX,20.6
1978,4,1978-04-06,0,TMAX,18.3
1978,4,1978-04-07,2,TMAX,19.4
1978,4,1978-04-08,0,TMAX,23.9
1977,3,1977-03-30,0,TMAX,27.8
1977,3,1977-03-31,0,TMAX,27.8
1977,4,1977-04-01,0,TMAX,19.4
1977,4,1977-04-02,0.8,TMAX,17.8
1976,4,1976-04-07,0,TMAX,20
1976,4,1976-04-08,0,TMAX,20
1976,4,1976-04-09,0,TMAX,15.6
1976,4,1976-04-10,0,TMAX,11.1
1975,4,1975-04-02,0,TMAX,20
1975,4,1975-04-03,1.5,TMAX,19.4
1975,4,1975-04-04,2.8,TMAX,16.7
1975,4,1975-04-05,0,TMAX,7.8
1974,4,1974-04-01,0,TMAX,10.6
1974,4,1974-04-02,0,TMAX,15.6
1974,4,1974-04-03,1,TMAX,24.4
1974,4,1974-04-04,1.5,TMAX,26.7
1974,4,1974-04-05,3,TMAX,22.2
1973,4,1973-04-08,18.3,TMAX,18.3
1973,4,1973-04-09,1.5,TMAX,14.4
1973,4,1973-04-10,7.4,TMAX,16.1
1973,4,1973-04-11,0.3,TMAX,10.6
1973,4,1973-04-12,0,TMAX,10.6
1973,4,1973-04-13,3.3,TMAX,7.2
1972,4,1972-04-05,0,TMAX,17.8
1972,4,1972-04-06,0,TMAX,22.8
1972,4,1972-04-07,0,TMAX,21.7
1972,4,1972-04-08,10.4,TMAX,4.4
1971,4,1971-04-01,0,TMAX,23.3
1971,4,1971-04-02,7.6,TMAX,22.2
1971,4,1971-04-03,6.4,TMAX,16.1
1971,4,1971-04-04,0,TMAX,18.3
1970,4,1970-04-09,0,TMAX,26.7
1970,4,1970-04-10,0,TMAX,22.8
1970,4,1970-04-11,0,TMAX,17.8
1970,4,1970-04-12,0,TMAX,15
1969,4,1969-04-10,0,TMAX,26.7
1969,4,1969-04-11,0,TMAX,18.3
1969,4,1969-04-12,0,TMAX,17.2
1969,4,1969-04-13,0,TMAX,17.8
1968,4,1968-04-03,0,TMAX,13.3
1968,4,1968-04-04,0,TMAX,22.2
1968,4,1968-04-05,4.6,TMAX,21.7
1968,4,1968-04-06,0,TMAX,14.4
1968,4,1968-04-07,0,TMAX,17.8
1967,4,1967-04-06,0,TMAX,27.2
1967,4,1967-04-07,13.2,TMAX,25.6
1967,4,1967-04-08,0,TMAX,17.8
1967,4,1967-04-09,0,TMAX,18.9
1966,4,1966-04-14,3,TMAX,13.3
1966,4,1966-04-15,0,TMAX,16.1
1966,4,1966-04-16,0,TMAX,17.8
1966,4,1966-04-17,0,TMAX,19.4
1965,4,1965-04-08,0,TMAX,23.9
1965,4,1965-04-09,5.8,TMAX,22.2
1965,4,1965-04-10,0,TMAX,16.7
1965,4,1965-04-11,0,TMAX,16.1
1964,4,1964-04-09,0,TMAX,13.3
1964,4,1964-04-10,0,TMAX,18.3
1964,4,1964-04-11,0,TMAX,18.9
1964,4,1964-04-12,0,TMAX,22.2
1963,4,1963-04-04,0,TMAX,29.4
1963,4,1963-04-05,0,TMAX,14.4
1963,4,1963-04-06,0,TMAX,18.3
1963,4,1963-04-07,0,TMAX,21.1
1962,4,1962-04-05,0,TMAX,19.4
1962,4,1962-04-06,0,TMAX,21.1
1962,4,1962-04-07,26.7,TMAX,23.9
1962,4,1962-04-08,6.1,TMAX,18.3
1961,4,1961-04-06,0,TMAX,16.7
1961,4,1961-04-07,0,TMAX,12.8
1961,4,1961-04-08,0,TMAX,12.2
1961,4,1961-04-09,1,TMAX,11.7
1960,4,1960-04-07,0,TMAX,17.8
1960,4,1960-04-08,0,TMAX,18.3
1960,4,1960-04-09,0,TMAX,18.3
1960,4,1960-04-10,0,TMAX,11.1
1959,4,1959-04-09,2.3,TMAX,31.7
1959,4,1959-04-10,3,TMAX,24.4
1959,4,1959-04-11,22.9,TMAX,15
1959,4,1959-04-12,14.5,TMAX,10.6
2016,3,2016-03-22,0,TMIN,-0.6
2016,3,2016-03-23,0,TMIN,0.6
2016,3,2016-03-24,0,TMIN,7.8
2016,3,2016-03-25,0,TMIN,10.6
2016,3,2016-03-26,0.5,TMIN,4.4
2016,3,2016-03-27,0,TMIN,5
2016,3,2016-03-28,10.4,TMIN,9.4
2016,3,2016-03-29,1,TMIN,8.3
2016,3,2016-03-30,0,TMIN,0.6
2016,3,2016-03-31,0,TMIN,5
2016,4,2016-04-01,0,TMIN,12.8
2016,4,2016-04-02,2.5,TMIN,10
2016,4,2016-04-03,3,TMIN,2.2
2016,4,2016-04-04,0.5,TMIN,2.8
2016,4,2016-04-05,2,TMIN,-1.1
2016,4,2016-04-06,0,TMIN,-2.2
2016,4,2016-04-07,1,TMIN,0
2016,4,2016-04-08,16.3,TMIN,6.7
2016,4,2016-04-09,2,TMIN,3.9
2016,4,2016-04-10,0.8,TMIN,-0.6
2016,4,2016-04-11,0,TMIN,1.1
2016,4,2016-04-12,0.8,TMIN,8.9
2016,4,2016-04-13,0,TMIN,4.4
2016,4,2016-04-14,0,TMIN,2.2
2016,4,2016-04-15,0,TMIN,3.3
2016,4,2016-04-16,0,TMIN,5
2016,4,2016-04-17,0,TMIN,5
2015,3,2015-03-23,0,TMIN,NA
2015,3,2015-03-24,0,TMIN,1.1
2015,3,2015-03-25,0,TMIN,-2.2
2015,3,2015-03-26,0,TMIN,0.6
2015,3,2015-03-27,15,TMIN,5.6
2015,3,2015-03-28,0,TMIN,-1.1
2015,3,2015-03-29,0,TMIN,-3.9
2015,3,2015-03-30,0,TMIN,-2.2
2015,3,2015-03-31,0,TMIN,4.4
2015,4,2015-04-01,0,TMIN,1.1
2015,4,2015-04-02,0,TMIN,2.8
2015,4,2015-04-03,0,TMIN,6.7
2015,4,2015-04-04,4.6,TMIN,11.7
2015,4,2015-04-05,0,TMIN,3.9
2015,4,2015-04-06,0,TMIN,4.4
2015,4,2015-04-07,0.8,TMIN,10.6
2015,4,2015-04-08,6.9,TMIN,7.8
2015,4,2015-04-09,1.8,TMIN,6.1
2015,4,2015-04-10,1,TMIN,6.1
2015,4,2015-04-11,0.5,TMIN,7.2
2015,4,2015-04-12,0,TMIN,3.3
2014,3,2014-03-22,0,TMIN,3.3
2014,3,2014-03-23,0,TMIN,5
2014,3,2014-03-24,0,TMIN,-4.4
2014,3,2014-03-25,0,TMIN,-3.9
2014,3,2014-03-26,2.8,TMIN,-1.7
2014,3,2014-03-27,0,TMIN,-5
2014,3,2014-03-28,0,TMIN,-2.2
2014,3,2014-03-29,1.3,TMIN,7.8
2014,3,2014-03-30,23.1,TMIN,8.3
2014,3,2014-03-31,22.4,TMIN,2.8
2014,4,2014-04-01,0,TMIN,3.3
2014,4,2014-04-02,0,TMIN,4.4
2014,4,2014-04-03,0,TMIN,7.2
2014,4,2014-04-04,0,TMIN,8.9
2014,4,2014-04-05,0.3,TMIN,6.7
2014,4,2014-04-06,0,TMIN,0
2014,4,2014-04-07,0,TMIN,5
2014,4,2014-04-08,12.2,TMIN,5
2014,4,2014-04-09,0,TMIN,4.4
2014,4,2014-04-10,0,TMIN,3.9
2014,4,2014-04-11,0,TMIN,8.3
2014,4,2014-04-12,0,TMIN,11.1
2014,4,2014-04-13,0,TMIN,10.6
2013,3,2013-03-22,0,TMIN,-1.1
2013,3,2013-03-23,0,TMIN,-2.8
2013,3,2013-03-24,0,TMIN,-1.7
2013,3,2013-03-25,10.7,TMIN,0
2013,3,2013-03-27,NA,TMIN,2.8
2013,3,2013-03-28,0,TMIN,3.3
2013,3,2013-03-29,0,TMIN,5
2013,3,2013-03-30,0,TMIN,1.7
2013,3,2013-03-31,0,TMIN,-1.1
2013,4,2013-04-01,0.5,TMIN,3.9
2013,4,2013-04-02,0,TMIN,1.7
2013,4,2013-04-03,0,TMIN,-0.6
2013,4,2013-04-04,0,TMIN,-2.8
2013,4,2013-04-05,6.9,TMIN,0
2013,4,2013-04-06,0,TMIN,3.9
2013,4,2013-04-07,0,TMIN,4.4
2013,4,2013-04-08,0,TMIN,6.7
2013,4,2013-04-09,0,TMIN,13.9
2013,4,2013-04-10,0,TMIN,17.2
2013,4,2013-04-11,0,TMIN,15.6
2013,4,2013-04-12,14.2,TMIN,11.1
2013,4,2013-04-13,6.1,TMIN,7.2
2013,4,2013-04-14,0,TMIN,6.1
2012,3,2012-03-22,0,TMIN,13.3
2012,3,2012-03-23,0,TMIN,12.8
2012,3,2012-03-24,0,TMIN,15.6
2012,3,2012-03-25,9.1,TMIN,11.1
2012,3,2012-03-26,0,TMIN,8.9
2012,3,2012-03-27,0,TMIN,-0.6
2012,3,2012-03-28,0,TMIN,1.1
2012,3,2012-03-29,0,TMIN,8.3
2012,3,2012-03-30,0,TMIN,3.3
2012,3,2012-03-31,0,TMIN,6.7
2012,4,2012-04-01,0,TMIN,7.8
2012,4,2012-04-02,3.3,TMIN,8.9
2012,4,2012-04-03,0,TMIN,2.8
2012,4,2012-04-04,0,TMIN,7.8
2012,4,2012-04-05,0,TMIN,7.8
2012,4,2012-04-07,0,TMIN,5.6
2012,4,2012-04-08,0,TMIN,3.3
2012,4,2012-04-09,0,TMIN,5
2012,4,2012-04-10,0,TMIN,5.6
2012,4,2012-04-11,0,TMIN,4.4
2012,4,2012-04-12,0,TMIN,5
2012,4,2012-04-13,0,TMIN,5
2012,4,2012-04-14,0,TMIN,3.9
2012,4,2012-04-15,0,TMIN,9.4
2012,4,2012-04-16,0,TMIN,16.1
2012,4,2012-04-17,0,TMIN,18.3
2012,4,2012-04-18,0,TMIN,13.9
2012,4,2012-04-19,2,TMIN,8.9
2012,4,2012-04-20,0,TMIN,8.9
2012,4,2012-04-21,0,TMIN,12.8
2012,4,2012-04-22,4.6,TMIN,10
2012,4,2012-04-23,34,TMIN,5
2012,4,2012-04-24,1.5,TMIN,5
2012,4,2012-04-25,0,TMIN,3.9
2012,4,2012-04-26,0,TMIN,8.9
2012,4,2012-04-27,0.5,TMIN,9.4
2011,3,2011-03-28,0,TMIN,-3.3
2011,3,2011-03-29,0,TMIN,-0.6
2011,3,2011-03-30,0,TMIN,1.7
2011,3,2011-03-31,4.1,TMIN,2.2
2011,4,2011-04-01,4.1,TMIN,2.2
2011,4,2011-04-02,0,TMIN,3.3
2011,4,2011-04-03,1,TMIN,3.3
2011,4,2011-04-04,0,TMIN,6.7
2011,4,2011-04-05,8.4,TMIN,12.8
2011,4,2011-04-06,4.6,TMIN,1.7
2011,4,2011-04-07,0,TMIN,4.4
2011,4,2011-04-08,0.5,TMIN,7.2
2011,4,2011-04-09,9.9,TMIN,5.6
2011,4,2011-04-10,0,TMIN,6.7
2010,3,2010-03-29,20.8,TMIN,3.9
2010,3,2010-03-30,6.1,TMIN,6.7
2010,3,2010-03-31,0,TMIN,7.2
2010,4,2010-04-01,0,TMIN,6.1
2010,4,2010-04-02,0,TMIN,7.8
2010,4,2010-04-03,0,TMIN,8.3
2010,4,2010-04-04,0,TMIN,6.1
2010,4,2010-04-05,0,TMIN,10.6
2010,4,2010-04-06,0,TMIN,11.7
2010,4,2010-04-07,0,TMIN,17.2
2010,4,2010-04-08,0,TMIN,19.4
2010,4,2010-04-09,21.1,TMIN,9.4
2010,4,2010-04-10,0,TMIN,3.9
2010,4,2010-04-11,0,TMIN,3.9
2009,3,2009-03-30,0,TMIN,9.4
2009,3,2009-03-31,0,TMIN,3.9
2009,4,2009-04-01,0,TMIN,7.2
2009,4,2009-04-02,5.3,TMIN,9.4
2009,4,2009-04-03,8.1,TMIN,13.9
2009,4,2009-04-04,0,TMIN,9.4
2009,4,2009-04-05,0,TMIN,6.7
2009,4,2009-04-06,NA,TMIN,NA
2009,4,2009-04-07,NA,TMIN,NA
2009,4,2009-04-08,0,TMIN,5
2009,4,2009-04-09,0,TMIN,3.3
2009,4,2009-04-10,0,TMIN,7.2
2009,4,2009-04-11,4.8,TMIN,9.4
2009,4,2009-04-12,5.3,TMIN,5
2008,3,2008-03-31,0,TMIN,4.4
2008,4,2008-04-01,2.3,TMIN,5
2008,4,2008-04-02,0.8,TMIN,6.1
2008,4,2008-04-03,0,TMIN,1.7
2008,4,2008-04-04,19.6,TMIN,3.3
2008,4,2008-04-05,0,TMIN,5
2008,4,2008-04-06,8.6,TMIN,6.1
2008,4,2008-04-07,1.8,TMIN,5.6
2008,4,2008-04-08,0,TMIN,5.6
2008,4,2008-04-09,0,TMIN,6.1
2008,4,2008-04-10,0,TMIN,7.8
2008,4,2008-04-11,0,TMIN,10.6
2008,4,2008-04-12,3.6,TMIN,13.3
2008,4,2008-04-13,0.3,TMIN,8.9
2008,4,2008-04-01,2.5,TMIN,NA
2007,4,2007-04-02,0.3,TMIN,7.8
2007,4,2007-04-03,0,TMIN,8.9
2007,4,2007-04-04,11.4,TMIN,7.2
2007,4,2007-04-05,0.8,TMIN,2.8
2007,4,2007-04-06,0,TMIN,1.1
2007,4,2007-04-07,0.8,TMIN,-0.6
2007,4,2007-04-08,0,TMIN,-0.6
2007,4,2007-04-09,0,TMIN,-0.6
2007,4,2007-04-10,0,TMIN,1.1
2007,4,2007-04-11,0,TMIN,-0.6
2007,4,2007-04-12,23.4,TMIN,1.7
2007,4,2007-04-13,2.5,TMIN,6.1
2007,4,2007-04-14,0,TMIN,1.7
2007,4,2007-04-15,40.1,TMIN,1.7
2007,4,2007-04-02,0,TMIN,NA
2007,4,2007-04-03,0,TMIN,NA
2007,4,2007-04-04,9.4,TMIN,NA
2007,4,2007-04-05,0.8,TMIN,NA
2007,4,2007-04-06,0,TMIN,NA
2007,4,2007-04-07,2.3,TMIN,NA
2007,4,2007-04-13,3.6,TMIN,NA
2007,4,2007-04-14,0,TMIN,NA
2007,4,2007-04-15,38.6,TMIN,NA
2007,4,2007-04-02,0.3,TMIN,NA
2007,4,2007-04-04,10.4,TMIN,NA
2007,4,2007-04-05,0.8,TMIN,NA
2007,4,2007-04-08,0,TMIN,NA
2007,4,2007-04-09,0,TMIN,NA
2007,4,2007-04-10,0,TMIN,NA
2007,4,2007-04-11,0,TMIN,NA
2007,4,2007-04-12,22.9,TMIN,NA
2006,3,2006-03-27,0,TMIN,1.7
2006,3,2006-03-28,0,TMIN,3.3
2006,3,2006-03-29,0.3,TMIN,7.2
2006,3,2006-03-30,0,TMIN,3.9
2006,3,2006-03-31,0,TMIN,8.3
2006,4,2006-04-01,0,TMIN,12.2
2006,4,2006-04-02,0,TMIN,11.1
2006,4,2006-04-03,0.3,TMIN,10.6
2006,4,2006-04-04,13.7,TMIN,7.2
2006,4,2006-04-05,0,TMIN,6.1
2006,4,2006-04-06,0,TMIN,3.9
2006,4,2006-04-07,1.8,TMIN,8.3
2006,4,2006-04-08,5.1,TMIN,15
2006,4,2006-04-09,14.7,TMIN,1.1
2005,3,2005-03-28,6.6,TMIN,6.1
2005,3,2005-03-29,30.7,TMIN,7.2
2005,3,2005-03-30,0,TMIN,5
2005,3,2005-03-31,0,TMIN,5.6
2005,4,2005-04-01,0,TMIN,7.8
2005,4,2005-04-02,14.5,TMIN,8.3
2005,4,2005-04-03,43.9,TMIN,4.4
2005,4,2005-04-04,0,TMIN,5
2005,4,2005-04-05,0,TMIN,2.2
2005,4,2005-04-06,0,TMIN,6.1
2005,4,2005-04-07,0,TMIN,12.8
2005,4,2005-04-08,7.6,TMIN,15
2005,4,2005-04-09,0.5,TMIN,6.7
2005,4,2005-04-10,0,TMIN,3.3
2004,3,2004-03-29,0,TMIN,5
2004,3,2004-03-30,0,TMIN,3.3
2004,3,2004-03-31,0.5,TMIN,3.9
2004,4,2004-04-01,10.7,TMIN,6.7
2004,4,2004-04-02,19.3,TMIN,6.1
2004,4,2004-04-03,9.7,TMIN,6.1
2004,4,2004-04-04,1.8,TMIN,5
2004,4,2004-04-05,0.5,TMIN,-0.6
2004,4,2004-04-06,0,TMIN,-0.6
2004,4,2004-04-07,0,TMIN,2.2
2004,4,2004-04-08,0,TMIN,7.8
2004,4,2004-04-09,1.3,TMIN,5
2004,4,2004-04-10,0,TMIN,5.6
2004,4,2004-04-11,0,TMIN,8.3
2003,3,2003-03-24,0,TMIN,6.7
2003,3,2003-03-25,0,TMIN,5
2003,3,2003-03-26,0,TMIN,9.4
2003,3,2003-03-27,10.7,TMIN,3.9
2003,3,2003-03-28,0,TMIN,4.4
2003,3,2003-03-29,3,TMIN,8.3
2003,3,2003-03-30,9.7,TMIN,5.6
2003,3,2003-03-31,12.4,TMIN,-0.6
2003,4,2003-04-01,0,TMIN,0
2003,4,2003-04-02,0,TMIN,4.4
2003,4,2003-04-03,0,TMIN,10.6
2003,4,2003-04-04,0,TMIN,7.8
2003,4,2003-04-05,0.5,TMIN,6.7
2003,4,2003-04-06,0,TMIN,4.4
2003,4,2003-04-07,4.1,TMIN,3.9
2001,3,2001-03-27,0,TMIN,-4.4
2001,3,2001-03-28,0,TMIN,-3.9
2001,3,2001-03-29,0,TMIN,-0.6
2001,3,2001-03-30,40.9,TMIN,-0.6
2001,3,2001-03-31,0,TMIN,3.9
2001,4,2001-04-01,1.5,TMIN,4.4
2001,4,2001-04-02,0.8,TMIN,4.4
2001,4,2001-04-03,0,TMIN,-0.6
2001,4,2001-04-04,0,TMIN,0
2001,4,2001-04-05,0,TMIN,0.6
2001,4,2001-04-06,0,TMIN,1.7
2001,4,2001-04-07,4.8,TMIN,9.4
2001,4,2001-04-08,0,TMIN,6.7
2e3,3,2000-03-28,33.5,TMIN,7.2
2e3,3,2000-03-29,2,TMIN,5
2e3,3,2000-03-30,0,TMIN,0.6
2e3,3,2000-03-31,0,TMIN,0.6
2e3,4,2000-04-01,0,TMIN,1.7
2e3,4,2000-04-02,0,TMIN,10
2e3,4,2000-04-03,1.5,TMIN,13.9
2e3,4,2000-04-04,7.1,TMIN,15
2e3,4,2000-04-05,2,TMIN,2.8
2e3,4,2000-04-06,0,TMIN,3.3
2e3,4,2000-04-07,0,TMIN,3.9
2e3,4,2000-04-08,0,TMIN,10
2e3,4,2000-04-09,24.4,TMIN,0
1999,3,1999-03-30,0,TMIN,4.4
1999,3,1999-03-31,0,TMIN,0.6
1999,4,1999-04-01,1,TMIN,12.2
1999,4,1999-04-02,5.3,TMIN,12.2
1999,4,1999-04-03,0,TMIN,8.9
1999,4,1999-04-04,0,TMIN,9.4
1999,4,1999-04-05,16.5,TMIN,13.3
1999,4,1999-04-06,0,TMIN,3.3
1999,4,1999-04-07,0,TMIN,3.3
1999,4,1999-04-08,0,TMIN,6.7
1999,4,1999-04-09,0,TMIN,12.8
1999,4,1999-04-10,8.9,TMIN,7.2
1999,4,1999-04-11,2.8,TMIN,4.4
1998,3,1998-03-31,0,TMIN,18.9
1998,4,1998-04-01,0,TMIN,20
1998,4,1998-04-02,20.8,TMIN,13.3
1998,4,1998-04-03,0,TMIN,3.9
1998,4,1998-04-04,9.4,TMIN,7.2
1998,4,1998-04-05,9.4,TMIN,3.9
1998,4,1998-04-06,0,TMIN,4.4
1998,4,1998-04-07,0,TMIN,0.6
1998,4,1998-04-08,0,TMIN,4.4
1998,4,1998-04-09,2.5,TMIN,10.6
1998,4,1998-04-10,25.4,TMIN,6.7
1998,4,1998-04-11,0,TMIN,2.2
1998,4,1998-04-12,0,TMIN,1.1
1997,4,1997-04-01,0,TMIN,0
1997,4,1997-04-02,0,TMIN,5.6
1997,4,1997-04-03,0,TMIN,4.4
1997,4,1997-04-04,0.5,TMIN,9.4
1997,4,1997-04-05,0,TMIN,12.8
1997,4,1997-04-06,0,TMIN,10
1997,4,1997-04-07,3.8,TMIN,10.6
1997,4,1997-04-08,0,TMIN,6.7
1997,4,1997-04-09,0,TMIN,0
1997,4,1997-04-10,0,TMIN,-2.2
1997,4,1997-04-11,0,TMIN,-1.1
1997,4,1997-04-12,0,TMIN,4.4
1997,4,1997-04-13,10.7,TMIN,6.1
1996,4,1996-04-02,27.7,TMIN,3.3
1996,4,1996-04-03,0,TMIN,1.1
1996,4,1996-04-04,0,TMIN,5.6
1996,4,1996-04-05,0.3,TMIN,7.2
1996,4,1996-04-06,0.3,TMIN,3.3
1996,4,1996-04-07,2.3,TMIN,2.8
1996,4,1996-04-08,0,TMIN,1.1
1996,4,1996-04-09,0.3,TMIN,2.2
1996,4,1996-04-10,11.9,TMIN,0.6
1996,4,1996-04-11,1,TMIN,0
1996,4,1996-04-12,0,TMIN,6.1
1996,4,1996-04-13,0,TMIN,12.8
1996,4,1996-04-14,0,TMIN,10.6
1995,3,1995-03-28,1.3,TMIN,6.1
1995,3,1995-03-29,0,TMIN,0.6
1995,3,1995-03-30,0.5,TMIN,5.6
1995,3,1995-03-31,0.5,TMIN,1.7
1995,4,1995-04-01,0,TMIN,0.6
1995,4,1995-04-02,0,TMIN,1.7
1995,4,1995-04-03,0,TMIN,-1.7
1995,4,1995-04-04,0.5,TMIN,0.6
1995,4,1995-04-05,0,TMIN,-1.7
1995,4,1995-04-06,0,TMIN,-1.7
1995,4,1995-04-07,0,TMIN,0.6
1995,4,1995-04-08,0,TMIN,4.4
1995,4,1995-04-09,1.3,TMIN,8.3
1994,4,1994-04-05,0,TMIN,2.8
1994,4,1994-04-06,0,TMIN,5.6
1994,4,1994-04-07,17.5,TMIN,10
1994,4,1994-04-08,0,TMIN,1.7
1994,4,1994-04-09,0,TMIN,1.1
1994,4,1994-04-10,0,TMIN,2.2
1993,3,1993-03-30,4.1,TMIN,10.6
1993,3,1993-03-31,0,TMIN,6.1
1993,4,1993-04-01,7.1,TMIN,9.4
1993,4,1993-04-02,3.3,TMIN,10
1993,4,1993-04-03,14,TMIN,5.6
1993,4,1993-04-04,0,TMIN,1.1
1992,4,1992-04-07,0,TMIN,4.4
1992,4,1992-04-08,0,TMIN,7.2
1992,4,1992-04-09,0,TMIN,4.4
1992,4,1992-04-10,0,TMIN,6.7
1992,4,1992-04-11,10.2,TMIN,11.1
1992,4,1992-04-12,0,TMIN,11.7
1991,4,1991-04-02,0.3,TMIN,1.1
1991,4,1991-04-03,0,TMIN,-1.7
1991,4,1991-04-04,0,TMIN,2.2
1991,4,1991-04-05,0,TMIN,8.9
1991,4,1991-04-06,2.3,TMIN,8.3
1991,4,1991-04-07,0,TMIN,10
1990,4,1990-04-03,14.7,TMIN,8.9
1990,4,1990-04-04,0.3,TMIN,2.8
1990,4,1990-04-05,1,TMIN,3.9
1990,4,1990-04-06,0.3,TMIN,8.3
1990,4,1990-04-07,17.3,TMIN,1.1
1990,4,1990-04-08,0.3,TMIN,-2.2
1989,4,1989-04-04,0.5,TMIN,7.8
1989,4,1989-04-05,0.5,TMIN,12.8
1989,4,1989-04-06,16.3,TMIN,8.3
1989,4,1989-04-07,0,TMIN,2.8
1989,4,1989-04-08,9.1,TMIN,2.2
1989,4,1989-04-09,2.5,TMIN,2.8
1988,4,1988-04-05,0,TMIN,7.8
1988,4,1988-04-06,0,TMIN,8.3
1988,4,1988-04-07,11.7,TMIN,8.3
1988,4,1988-04-08,16.3,TMIN,6.7
1988,4,1988-04-09,0,TMIN,5
1988,4,1988-04-10,0,TMIN,1.7
1987,4,1987-04-07,0.8,TMIN,1.1
1987,4,1987-04-08,0,TMIN,6.1
1987,4,1987-04-09,0,TMIN,4.4
1987,4,1987-04-10,0,TMIN,2.8
1987,4,1987-04-11,0,TMIN,3.9
1986,4,1986-04-08,0,TMIN,10.6
1986,4,1986-04-09,0,TMIN,6.7
1986,4,1986-04-10,0,TMIN,3.3
1986,4,1986-04-11,5.1,TMIN,2.8
1986,4,1986-04-12,0.8,TMIN,1.7
1985,4,1985-04-09,0.5,TMIN,-1.1
1985,4,1985-04-10,0,TMIN,-3.3
1985,4,1985-04-11,0.3,TMIN,-1.1
1985,4,1985-04-12,0,TMIN,3.3
1985,4,1985-04-13,0,TMIN,7.2
1984,4,1984-04-03,0,TMIN,6.1
1984,4,1984-04-04,0,TMIN,7.8
1984,4,1984-04-05,24.6,TMIN,7.2
1984,4,1984-04-06,0,TMIN,6.7
1984,4,1984-04-07,0,TMIN,6.7
1983,4,1983-04-06,0,TMIN,4.4
1983,4,1983-04-07,2,TMIN,9.4
1983,4,1983-04-08,5.6,TMIN,8.3
1983,4,1983-04-09,7.6,TMIN,11.1
1983,4,1983-04-10,43.2,TMIN,6.1
1982,3,1982-03-30,0,TMIN,-1.1
1982,3,1982-03-31,0,TMIN,3.3
1982,4,1982-04-01,13.2,TMIN,7.2
1982,4,1982-04-02,0,TMIN,6.7
1982,4,1982-04-03,8.9,TMIN,6.7
1981,4,1981-04-01,0,TMIN,10
1981,4,1981-04-02,11.7,TMIN,10
1981,4,1981-04-03,0,TMIN,-0.6
1981,4,1981-04-04,0,TMIN,7.2
1979,4,1979-04-04,7.4,TMIN,5
1979,4,1979-04-05,6.6,TMIN,6.1
1979,4,1979-04-06,0,TMIN,4.4
1979,4,1979-04-07,0,TMIN,0
1978,4,1978-04-05,0,TMIN,8.9
1978,4,1978-04-06,0,TMIN,3.9
1978,4,1978-04-07,2,TMIN,4.4
1978,4,1978-04-08,0,TMIN,8.9
1977,3,1977-03-30,0,TMIN,16.1
1977,3,1977-03-31,0,TMIN,16.1
1977,4,1977-04-01,0,TMIN,6.7
1977,4,1977-04-02,0.8,TMIN,7.2
1976,4,1976-04-07,0,TMIN,7.8
1976,4,1976-04-08,0,TMIN,5.6
1976,4,1976-04-09,0,TMIN,1.7
1976,4,1976-04-10,0,TMIN,2.2
1975,4,1975-04-02,0,TMIN,4.4
1975,4,1975-04-03,1.5,TMIN,5
1975,4,1975-04-04,2.8,TMIN,-0.6
1975,4,1975-04-05,0,TMIN,0
1974,4,1974-04-01,0,TMIN,1.7
1974,4,1974-04-02,0,TMIN,5
1974,4,1974-04-03,1,TMIN,6.1
1974,4,1974-04-04,1.5,TMIN,7.2
1974,4,1974-04-05,3,TMIN,17.8
1973,4,1973-04-08,18.3,TMIN,7.8
1973,4,1973-04-09,1.5,TMIN,-0.6
1973,4,1973-04-10,7.4,TMIN,-0.6
1973,4,1973-04-11,0.3,TMIN,1.7
1973,4,1973-04-12,0,TMIN,-3.9
1973,4,1973-04-13,3.3,TMIN,-1.1
1972,4,1972-04-05,0,TMIN,-2.2
1972,4,1972-04-06,0,TMIN,6.1
1972,4,1972-04-07,0,TMIN,1.1
1972,4,1972-04-08,10.4,TMIN,-2.8
1971,4,1971-04-01,0,TMIN,-0.6
1971,4,1971-04-02,7.6,TMIN,7.2
1971,4,1971-04-03,6.4,TMIN,-1.7
1971,4,1971-04-04,0,TMIN,-1.1
1970,4,1970-04-09,0,TMIN,8.3
1970,4,1970-04-10,0,TMIN,8.3
1970,4,1970-04-11,0,TMIN,1.7
1970,4,1970-04-12,0,TMIN,5.6
1969,4,1969-04-10,0,TMIN,12.8
1969,4,1969-04-11,0,TMIN,10
1969,4,1969-04-12,0,TMIN,3.3
1969,4,1969-04-13,0,TMIN,0.6
1968,4,1968-04-03,0,TMIN,5.6
1968,4,1968-04-04,0,TMIN,8.3
1968,4,1968-04-05,4.6,TMIN,13.3
1968,4,1968-04-06,0,TMIN,2.8
1968,4,1968-04-07,0,TMIN,-0.6
1967,4,1967-04-06,0,TMIN,8.9
1967,4,1967-04-07,13.2,TMIN,8.3
1967,4,1967-04-08,0,TMIN,6.1
1967,4,1967-04-09,0,TMIN,6.1
1966,4,1966-04-14,3,TMIN,1.7
1966,4,1966-04-15,0,TMIN,-1.1
1966,4,1966-04-16,0,TMIN,6.1
1966,4,1966-04-17,0,TMIN,2.2
1965,4,1965-04-08,0,TMIN,7.2
1965,4,1965-04-09,5.8,TMIN,10
1965,4,1965-04-10,0,TMIN,5
1965,4,1965-04-11,0,TMIN,5
1964,4,1964-04-09,0,TMIN,3.9
1964,4,1964-04-10,0,TMIN,-0.6
1964,4,1964-04-11,0,TMIN,4.4
1964,4,1964-04-12,0,TMIN,3.3
1963,4,1963-04-04,0,TMIN,5
1963,4,1963-04-05,0,TMIN,3.9
1963,4,1963-04-06,0,TMIN,1.7
1963,4,1963-04-07,0,TMIN,7.2
1962,4,1962-04-05,0,TMIN,4.4
1962,4,1962-04-06,0,TMIN,8.9
1962,4,1962-04-07,26.7,TMIN,12.8
1962,4,1962-04-08,6.1,TMIN,12.2
1961,4,1961-04-06,0,TMIN,6.1
1961,4,1961-04-07,0,TMIN,2.2
1961,4,1961-04-08,0,TMIN,0.6
1961,4,1961-04-09,1,TMIN,2.2
1960,4,1960-04-07,0,TMIN,3.9
1960,4,1960-04-08,0,TMIN,5.6
1960,4,1960-04-09,0,TMIN,4.4
1960,4,1960-04-10,0,TMIN,1.1
1959,4,1959-04-09,2.3,TMIN,18.9
1959,4,1959-04-10,3,TMIN,15
1959,4,1959-04-11,22.9,TMIN,10.6
1959,4,1959-04-12,14.5,TMIN,0
2016,3,2016-03-22,0,TOBS,0.6
2016,3,2016-03-23,0,TOBS,13.3
2016,3,2016-03-24,0,TOBS,10.6
2016,3,2016-03-25,0,TOBS,18.9
2016,3,2016-03-26,0.5,TOBS,5
2016,3,2016-03-27,0,TOBS,9.4
2016,3,2016-03-28,10.4,TOBS,10.6
2016,3,2016-03-29,1,TOBS,8.9
2016,3,2016-03-30,0,TOBS,5
2016,3,2016-03-31,0,TOBS,12.8
2016,4,2016-04-01,0,TOBS,20.6
2016,4,2016-04-02,2.5,TOBS,10.6
2016,4,2016-04-03,3,TOBS,2.8
2016,4,2016-04-04,0.5,TOBS,10.6
2016,4,2016-04-05,2,TOBS,0
2016,4,2016-04-06,0,TOBS,0
2016,4,2016-04-07,1,TOBS,12.8
2016,4,2016-04-08,16.3,TOBS,7.2
2016,4,2016-04-09,2,TOBS,3.9
2016,4,2016-04-10,0.8,TOBS,1.1
2016,4,2016-04-11,0,TOBS,9.4
2016,4,2016-04-12,0.8,TOBS,16.1
2016,4,2016-04-13,0,TOBS,6.1
2016,4,2016-04-14,0,TOBS,5
2016,4,2016-04-15,0,TOBS,6.7
2016,4,2016-04-16,0,TOBS,10
2016,4,2016-04-17,0,TOBS,10.6
2015,3,2015-03-23,0,TOBS,1.1
2015,3,2015-03-24,0,TOBS,3.3
2015,3,2015-03-25,0,TOBS,0.6
2015,3,2015-03-26,0,TOBS,11.7
2015,3,2015-03-27,15,TOBS,5.6
2015,3,2015-03-28,0,TOBS,-0.6
2015,3,2015-03-29,0,TOBS,-2.2
2015,3,2015-03-30,0,TOBS,7.2
2015,3,2015-03-31,0,TOBS,6.1
2015,4,2015-04-01,0,TOBS,5
2015,4,2015-04-02,0,TOBS,7.2
2015,4,2015-04-03,0,TOBS,17.8
2015,4,2015-04-04,4.6,TOBS,11.7
2015,4,2015-04-05,0,TOBS,4.4
2015,4,2015-04-06,0,TOBS,10.6
2015,4,2015-04-07,0.8,TOBS,17.2
2015,4,2015-04-08,6.9,TOBS,7.8
2015,4,2015-04-09,1.8,TOBS,6.1
2015,4,2015-04-10,1,TOBS,7.2
2015,4,2015-04-11,0.5,TOBS,15
2015,4,2015-04-12,0,TOBS,10
2014,3,2014-03-22,0,TOBS,7.2
2014,3,2014-03-23,0,TOBS,5.6
2014,3,2014-03-24,0,TOBS,-3.9
2014,3,2014-03-25,0,TOBS,-0.6
2014,3,2014-03-26,2.8,TOBS,-1.1
2014,3,2014-03-27,0,TOBS,-2.2
2014,3,2014-03-28,0,TOBS,7.8
2014,3,2014-03-29,1.3,TOBS,15
2014,3,2014-03-30,23.1,TOBS,8.9
2014,3,2014-03-31,22.4,TOBS,7.8
2014,4,2014-04-01,0,TOBS,4.4
2014,4,2014-04-02,0,TOBS,7.2
2014,4,2014-04-03,0,TOBS,11.7
2014,4,2014-04-04,0,TOBS,9.4
2014,4,2014-04-05,0.3,TOBS,11.1
2014,4,2014-04-06,0,TOBS,5.6
2014,4,2014-04-07,0,TOBS,6.7
2014,4,2014-04-08,12.2,TOBS,14.4
2014,4,2014-04-09,0,TOBS,9.4
2014,4,2014-04-10,0,TOBS,8.3
2014,4,2014-04-11,0,TOBS,16.7
2014,4,2014-04-12,0,TOBS,16.1
2014,4,2014-04-13,0,TOBS,12.8
2013,3,2013-03-22,0,TOBS,0.6
2013,3,2013-03-23,0,TOBS,2.2
2013,3,2013-03-24,0,TOBS,0.6
2013,3,2013-03-25,10.7,TOBS,0.6
2013,3,2013-03-27,NA,TOBS,4.4
2013,3,2013-03-28,0,TOBS,5
2013,3,2013-03-29,0,TOBS,5
2013,3,2013-03-30,0,TOBS,6.7
2013,3,2013-03-31,0,TOBS,6.7
2013,4,2013-04-01,0.5,TOBS,7.2
2013,4,2013-04-02,0,TOBS,4.4
2013,4,2013-04-03,0,TOBS,4.4
2013,4,2013-04-04,0,TOBS,0
2013,4,2013-04-05,6.9,TOBS,6.1
2013,4,2013-04-06,0,TOBS,5.6
2013,4,2013-04-07,0,TOBS,6.7
2013,4,2013-04-08,0,TOBS,13.9
2013,4,2013-04-09,0,TOBS,18.3
2013,4,2013-04-10,0,TOBS,19.4
2013,4,2013-04-11,0,TOBS,19.4
2013,4,2013-04-12,14.2,TOBS,13.3
2013,4,2013-04-13,6.1,TOBS,11.7
2013,4,2013-04-14,0,TOBS,9.4
2012,3,2012-03-22,0,TOBS,16.1
2012,3,2012-03-23,0,TOBS,16.7
2012,3,2012-03-24,0,TOBS,15.6
2012,3,2012-03-25,9.1,TOBS,11.1
2012,3,2012-03-26,0,TOBS,13.3
2012,3,2012-03-27,0,TOBS,2.2
2012,3,2012-03-28,0,TOBS,9.4
2012,3,2012-03-29,0,TOBS,13.3
2012,3,2012-03-30,0,TOBS,6.7
2012,3,2012-03-31,0,TOBS,10
2012,4,2012-04-01,0,TOBS,8.9
2012,4,2012-04-02,3.3,TOBS,8.9
2012,4,2012-04-03,0,TOBS,7.8
2012,4,2012-04-04,0,TOBS,12.8
2012,4,2012-04-05,0,TOBS,10
2012,4,2012-04-07,0,TOBS,9.4
2012,4,2012-04-08,0,TOBS,11.1
2012,4,2012-04-09,0,TOBS,12.8
2012,4,2012-04-10,0,TOBS,8.3
2012,4,2012-04-11,0,TOBS,5.6
2012,4,2012-04-12,0,TOBS,7.2
2012,4,2012-04-13,0,TOBS,10.6
2012,4,2012-04-14,0,TOBS,9.4
2012,4,2012-04-15,0,TOBS,18.3
2012,4,2012-04-16,0,TOBS,20.6
2012,4,2012-04-17,0,TOBS,21.7
2012,4,2012-04-18,0,TOBS,14.4
2012,4,2012-04-19,2,TOBS,11.7
2012,4,2012-04-20,0,TOBS,13.3
2012,4,2012-04-21,0,TOBS,17.8
2012,4,2012-04-22,4.6,TOBS,10
2012,4,2012-04-23,34,TOBS,5
2012,4,2012-04-24,1.5,TOBS,7.8
2012,4,2012-04-25,0,TOBS,8.9
2012,4,2012-04-26,0,TOBS,13.3
2012,4,2012-04-27,0.5,TOBS,10.6
2011,3,2011-03-28,0,TOBS,0.6
2011,3,2011-03-29,0,TOBS,2.8
2011,3,2011-03-30,0,TOBS,6.1
2011,3,2011-03-31,4.1,TOBS,3.9
2011,4,2011-04-01,4.1,TOBS,4.4
2011,4,2011-04-02,0,TOBS,4.4
2011,4,2011-04-03,1,TOBS,8.9
2011,4,2011-04-04,0,TOBS,13.3
2011,4,2011-04-05,8.4,TOBS,16.1
2011,4,2011-04-06,4.6,TOBS,5
2011,4,2011-04-07,0,TOBS,8.3
2011,4,2011-04-08,0.5,TOBS,8.3
2011,4,2011-04-09,9.9,TOBS,6.7
2011,4,2011-04-10,0,TOBS,10.6
2010,3,2010-03-29,20.8,TOBS,10.6
2010,3,2010-03-30,6.1,TOBS,7.2
2010,3,2010-03-31,0,TOBS,10
2010,4,2010-04-01,0,TOBS,7.8
2010,4,2010-04-02,0,TOBS,10
2010,4,2010-04-03,0,TOBS,12.2
2010,4,2010-04-04,0,TOBS,12.2
2010,4,2010-04-05,0,TOBS,11.7
2010,4,2010-04-06,0,TOBS,18.3
2010,4,2010-04-07,0,TOBS,19.4
2010,4,2010-04-08,0,TOBS,21.1
2010,4,2010-04-09,21.1,TOBS,9.4
2010,4,2010-04-10,0,TOBS,8.9
2010,4,2010-04-11,0,TOBS,10.6
2009,3,2009-03-30,0,TOBS,9.4
2009,3,2009-03-31,0,TOBS,7.2
2009,4,2009-04-01,0,TOBS,9.4
2009,4,2009-04-02,5.3,TOBS,19.4
2009,4,2009-04-03,8.1,TOBS,15.6
2009,4,2009-04-04,0,TOBS,11.1
2009,4,2009-04-05,0,TOBS,11.7
2009,4,2009-04-06,NA,TOBS,NA
2009,4,2009-04-07,NA,TOBS,6.1
2009,4,2009-04-08,0,TOBS,5.6
2009,4,2009-04-09,0,TOBS,7.2
2009,4,2009-04-10,0,TOBS,9.4
2009,4,2009-04-11,4.8,TOBS,11.7
2009,4,2009-04-12,5.3,TOBS,6.7
2008,3,2008-03-31,0,TOBS,5
2008,4,2008-04-01,2.3,TOBS,12.8
2008,4,2008-04-02,0.8,TOBS,6.1
2008,4,2008-04-03,0,TOBS,5
2008,4,2008-04-04,19.6,TOBS,5.6
2008,4,2008-04-05,0,TOBS,6.1
2008,4,2008-04-06,8.6,TOBS,7.2
2008,4,2008-04-07,1.8,TOBS,5.6
2008,4,2008-04-08,0,TOBS,6.7
2008,4,2008-04-09,0,TOBS,7.8
2008,4,2008-04-10,0,TOBS,10.6
2008,4,2008-04-11,0,TOBS,13.9
2008,4,2008-04-12,3.6,TOBS,21.1
2008,4,2008-04-13,0.3,TOBS,10.6
2008,4,2008-04-01,2.5,TOBS,NA
2007,4,2007-04-02,0.3,TOBS,11.1
2007,4,2007-04-03,0,TOBS,11.7
2007,4,2007-04-04,11.4,TOBS,7.8
2007,4,2007-04-05,0.8,TOBS,3.3
2007,4,2007-04-06,0,TOBS,1.7
2007,4,2007-04-07,0.8,TOBS,0
2007,4,2007-04-08,0,TOBS,0.6
2007,4,2007-04-09,0,TOBS,2.8
2007,4,2007-04-10,0,TOBS,3.9
2007,4,2007-04-11,0,TOBS,1.7
2007,4,2007-04-12,23.4,TOBS,7.8
2007,4,2007-04-13,2.5,TOBS,7.2
2007,4,2007-04-14,0,TOBS,7.2
2007,4,2007-04-15,40.1,TOBS,6.7
2007,4,2007-04-02,0,TOBS,NA
2007,4,2007-04-03,0,TOBS,NA
2007,4,2007-04-04,9.4,TOBS,NA
2007,4,2007-04-05,0.8,TOBS,NA
2007,4,2007-04-06,0,TOBS,NA
2007,4,2007-04-07,2.3,TOBS,NA
2007,4,2007-04-13,3.6,TOBS,NA
2007,4,2007-04-14,0,TOBS,NA
2007,4,2007-04-15,38.6,TOBS,NA
2007,4,2007-04-02,0.3,TOBS,NA
2007,4,2007-04-04,10.4,TOBS,NA
2007,4,2007-04-05,0.8,TOBS,NA
2007,4,2007-04-08,0,TOBS,NA
2007,4,2007-04-09,0,TOBS,NA
2007,4,2007-04-10,0,TOBS,NA
2007,4,2007-04-11,0,TOBS,NA
2007,4,2007-04-12,22.9,TOBS,NA
2006,3,2006-03-27,0,TOBS,6.7
2006,3,2006-03-28,0,TOBS,8.3
2006,3,2006-03-29,0.3,TOBS,11.1
2006,3,2006-03-30,0,TOBS,11.1
2006,3,2006-03-31,0,TOBS,12.2
2006,4,2006-04-01,0,TOBS,18.9
2006,4,2006-04-02,0,TOBS,13.3
2006,4,2006-04-03,0.3,TOBS,12.2
2006,4,2006-04-04,13.7,TOBS,7.8
2006,4,2006-04-05,0,TOBS,6.1
2006,4,2006-04-06,0,TOBS,9.4
2006,4,2006-04-07,1.8,TOBS,11.7
2006,4,2006-04-08,5.1,TOBS,15.6
2006,4,2006-04-09,14.7,TOBS,3.9
2005,3,2005-03-28,6.6,TOBS,7.2
2005,3,2005-03-29,30.7,TOBS,11.1
2005,3,2005-03-30,0,TOBS,10
2005,3,2005-03-31,0,TOBS,7.8
2005,4,2005-04-01,0,TOBS,10
2005,4,2005-04-02,14.5,TOBS,11.7
2005,4,2005-04-03,43.9,TOBS,6.7
2005,4,2005-04-04,0,TOBS,8.9
2005,4,2005-04-05,0,TOBS,6.1
2005,4,2005-04-06,0,TOBS,12.8
2005,4,2005-04-07,0,TOBS,18.3
2005,4,2005-04-08,7.6,TOBS,15.6
2005,4,2005-04-09,0.5,TOBS,11.1
2005,4,2005-04-10,0,TOBS,8.3
2004,3,2004-03-29,0,TOBS,7.8
2004,3,2004-03-30,0,TOBS,3.9
2004,3,2004-03-31,0.5,TOBS,6.7
2004,4,2004-04-01,10.7,TOBS,8.3
2004,4,2004-04-02,19.3,TOBS,7.2
2004,4,2004-04-03,9.7,TOBS,6.7
2004,4,2004-04-04,1.8,TOBS,7.2
2004,4,2004-04-05,0.5,TOBS,0
2004,4,2004-04-06,0,TOBS,2.2
2004,4,2004-04-07,0,TOBS,10
2004,4,2004-04-08,0,TOBS,8.9
2004,4,2004-04-09,1.3,TOBS,6.7
2004,4,2004-04-10,0,TOBS,8.3
2004,4,2004-04-11,0,TOBS,10.6
2003,3,2003-03-24,0,TOBS,11.7
2003,3,2003-03-25,0,TOBS,9.4
2003,3,2003-03-26,0,TOBS,16.1
2003,3,2003-03-27,10.7,TOBS,7.2
2003,3,2003-03-28,0,TOBS,8.3
2003,3,2003-03-29,3,TOBS,16.7
2003,3,2003-03-30,9.7,TOBS,5.6
2003,3,2003-03-31,12.4,TOBS,0.6
2003,4,2003-04-01,0,TOBS,4.4
2003,4,2003-04-02,0,TOBS,10.6
2003,4,2003-04-03,0,TOBS,14.4
2003,4,2003-04-04,0,TOBS,8.3
2003,4,2003-04-05,0.5,TOBS,7.2
2003,4,2003-04-06,0,TOBS,5
2003,4,2003-04-07,4.1,TOBS,3.9
2001,3,2001-03-27,0,TOBS,-2.8
2001,3,2001-03-28,0,TOBS,2.8
2001,3,2001-03-29,0,TOBS,4.4
2001,3,2001-03-30,40.9,TOBS,5
2001,3,2001-03-31,0,TOBS,6.1
2001,4,2001-04-01,1.5,TOBS,6.7
2001,4,2001-04-02,0.8,TOBS,6.7
2001,4,2001-04-03,0,TOBS,0.6
2001,4,2001-04-04,0,TOBS,7.2
2001,4,2001-04-05,0,TOBS,1.7
2001,4,2001-04-06,0,TOBS,10
2001,4,2001-04-07,4.8,TOBS,17.2
2001,4,2001-04-08,0,TOBS,8.9
2e3,3,2000-03-28,33.5,TOBS,10.6
2e3,3,2000-03-29,2,TOBS,8.3
2e3,3,2000-03-30,0,TOBS,5.6
2e3,3,2000-03-31,0,TOBS,8.3
2e3,4,2000-04-01,0,TOBS,10.6
2e3,4,2000-04-02,0,TOBS,13.9
2e3,4,2000-04-03,1.5,TOBS,16.7
2e3,4,2000-04-04,7.1,TOBS,15.6
2e3,4,2000-04-05,2,TOBS,4.4
2e3,4,2000-04-06,0,TOBS,3.9
2e3,4,2000-04-07,0,TOBS,11.1
2e3,4,2000-04-08,0,TOBS,18.9
2e3,4,2000-04-09,24.4,TOBS,1.1
1999,3,1999-03-30,0,TOBS,12.8
1999,3,1999-03-31,0,TOBS,13.3
1999,4,1999-04-01,1,TOBS,14.4
1999,4,1999-04-02,5.3,TOBS,15.6
1999,4,1999-04-03,0,TOBS,10
1999,4,1999-04-04,0,TOBS,17.2
1999,4,1999-04-05,16.5,TOBS,13.3
1999,4,1999-04-06,0,TOBS,3.3
1999,4,1999-04-07,0,TOBS,16.7
1999,4,1999-04-08,0,TOBS,13.3
1999,4,1999-04-09,0,TOBS,16.7
1999,4,1999-04-10,8.9,TOBS,7.8
1999,4,1999-04-11,2.8,TOBS,7.8
1998,3,1998-03-31,0,TOBS,21.1
1998,4,1998-04-01,0,TOBS,21.1
1998,4,1998-04-02,20.8,TOBS,15.6
1998,4,1998-04-03,0,TOBS,13.9
1998,4,1998-04-04,9.4,TOBS,7.2
1998,4,1998-04-05,9.4,TOBS,6.1
1998,4,1998-04-06,0,TOBS,6.7
1998,4,1998-04-07,0,TOBS,5
1998,4,1998-04-08,0,TOBS,11.1
1998,4,1998-04-09,2.5,TOBS,11.7
1998,4,1998-04-10,25.4,TOBS,8.9
1998,4,1998-04-11,0,TOBS,3.9
1998,4,1998-04-12,0,TOBS,5
1997,4,1997-04-01,0,TOBS,3.9
1997,4,1997-04-02,0,TOBS,8.9
1997,4,1997-04-03,0,TOBS,10
1997,4,1997-04-04,0.5,TOBS,12.8
1997,4,1997-04-05,0,TOBS,14.4
1997,4,1997-04-06,0,TOBS,11.1
1997,4,1997-04-07,3.8,TOBS,15.6
1997,4,1997-04-08,0,TOBS,6.7
1997,4,1997-04-09,0,TOBS,0
1997,4,1997-04-10,0,TOBS,-1.1
1997,4,1997-04-11,0,TOBS,3.9
1997,4,1997-04-12,0,TOBS,6.1
1997,4,1997-04-13,10.7,TOBS,15
1996,4,1996-04-02,27.7,TOBS,4.4
1996,4,1996-04-03,0,TOBS,6.7
1996,4,1996-04-04,0,TOBS,7.8
1996,4,1996-04-05,0.3,TOBS,7.2
1996,4,1996-04-06,0.3,TOBS,5
1996,4,1996-04-07,2.3,TOBS,5
1996,4,1996-04-08,0,TOBS,1.7
1996,4,1996-04-09,0.3,TOBS,5.6
1996,4,1996-04-10,11.9,TOBS,0.6
1996,4,1996-04-11,1,TOBS,5.6
1996,4,1996-04-12,0,TOBS,17.2
1996,4,1996-04-13,0,TOBS,12.2
1996,4,1996-04-14,0,TOBS,10.6
1995,3,1995-03-28,1.3,TOBS,7.2
1995,3,1995-03-29,0,TOBS,6.7
1995,3,1995-03-30,0.5,TOBS,8.3
1995,3,1995-03-31,0.5,TOBS,7.8
1995,4,1995-04-01,0,TOBS,6.7
1995,4,1995-04-02,0,TOBS,7.8
1995,4,1995-04-03,0,TOBS,0.6
1995,4,1995-04-04,0.5,TOBS,13.9
1995,4,1995-04-05,0,TOBS,-0.6
1995,4,1995-04-06,0,TOBS,1.1
1995,4,1995-04-07,0,TOBS,7.8
1995,4,1995-04-08,0,TOBS,8.9
1995,4,1995-04-09,1.3,TOBS,10.6
1994,4,1994-04-05,0,TOBS,6.1
1994,4,1994-04-06,0,TOBS,16.1
1994,4,1994-04-07,17.5,TOBS,10.6
1994,4,1994-04-08,0,TOBS,3.9
1994,4,1994-04-09,0,TOBS,3.3
1994,4,1994-04-10,0,TOBS,15.6
1993,3,1993-03-30,4.1,TOBS,12.8
1993,3,1993-03-31,0,TOBS,11.7
1993,4,1993-04-01,7.1,TOBS,12.2
1993,4,1993-04-02,3.3,TOBS,11.7
1993,4,1993-04-03,14,TOBS,8.3
1993,4,1993-04-04,0,TOBS,3.9
1992,4,1992-04-07,0,TOBS,8.3
1992,4,1992-04-08,0,TOBS,15.6
1992,4,1992-04-09,0,TOBS,7.2
1992,4,1992-04-10,0,TOBS,11.7
1992,4,1992-04-11,10.2,TOBS,12.8
1992,4,1992-04-12,0,TOBS,11.7
1991,4,1991-04-02,0.3,TOBS,10
1991,4,1991-04-03,0,TOBS,5.6
1991,4,1991-04-04,0,TOBS,8.9
1991,4,1991-04-05,0,TOBS,13.9
1991,4,1991-04-06,2.3,TOBS,16.1
1991,4,1991-04-07,0,TOBS,15
1990,4,1990-04-03,14.7,TOBS,8.9
1990,4,1990-04-04,0.3,TOBS,1.1
1990,4,1990-04-05,1,TOBS,8.9
1990,4,1990-04-06,0.3,TOBS,8.3
1990,4,1990-04-07,17.3,TOBS,9.4
1990,4,1990-04-08,0.3,TOBS,5.6
1989,4,1989-04-04,0.5,TOBS,17.2
1989,4,1989-04-05,0.5,TOBS,15
1989,4,1989-04-06,16.3,TOBS,10
1989,4,1989-04-07,0,TOBS,3.9
1989,4,1989-04-08,9.1,TOBS,4.4
1989,4,1989-04-09,2.5,TOBS,6.1
1988,4,1988-04-05,0,TOBS,8.9
1988,4,1988-04-06,0,TOBS,12.2
1988,4,1988-04-07,11.7,TOBS,8.3
1988,4,1988-04-08,16.3,TOBS,7.8
1988,4,1988-04-09,0,TOBS,6.1
1988,4,1988-04-10,0,TOBS,5
1987,4,1987-04-07,0.8,TOBS,6.7
1987,4,1987-04-08,0,TOBS,7.2
1987,4,1987-04-09,0,TOBS,5
1987,4,1987-04-10,0,TOBS,3.3
1987,4,1987-04-11,0,TOBS,12.8
1986,4,1986-04-08,0,TOBS,13.3
1986,4,1986-04-09,0,TOBS,8.3
1986,4,1986-04-10,0,TOBS,5
1986,4,1986-04-11,5.1,TOBS,3.9
1986,4,1986-04-12,0.8,TOBS,7.8
1985,4,1985-04-09,0.5,TOBS,2.8
1985,4,1985-04-10,0,TOBS,-0.6
1985,4,1985-04-11,0.3,TOBS,6.1
1985,4,1985-04-12,0,TOBS,7.8
1985,4,1985-04-13,0,TOBS,11.1
1984,4,1984-04-03,0,TOBS,7.8
1984,4,1984-04-04,0,TOBS,7.8
1984,4,1984-04-05,24.6,TOBS,12.8
1984,4,1984-04-06,0,TOBS,6.7
1984,4,1984-04-07,0,TOBS,7.2
1983,4,1983-04-06,0,TOBS,7.8
1983,4,1983-04-07,2,TOBS,10.6
1983,4,1983-04-08,5.6,TOBS,10.6
1983,4,1983-04-09,7.6,TOBS,11.1
1983,4,1983-04-10,43.2,TOBS,6.7
1982,3,1982-03-30,0,TOBS,3.9
1982,3,1982-03-31,0,TOBS,13.9
1982,4,1982-04-01,13.2,TOBS,13.9
1982,4,1982-04-02,0,TOBS,11.7
1982,4,1982-04-03,8.9,TOBS,10
1981,4,1981-04-01,0,TOBS,10
1981,4,1981-04-02,11.7,TOBS,11.7
1981,4,1981-04-03,0,TOBS,13.3
1981,4,1981-04-04,0,TOBS,17.2
1979,4,1979-04-04,7.4,TOBS,6.1
1979,4,1979-04-05,6.6,TOBS,7.8
1979,4,1979-04-06,0,TOBS,11.1
1979,4,1979-04-07,0,TOBS,2.8
1978,4,1978-04-05,0,TOBS,17.2
1978,4,1978-04-06,0,TOBS,8.3
1978,4,1978-04-07,2,TOBS,8.9
1978,4,1978-04-08,0,TOBS,15.6
1977,3,1977-03-30,0,TOBS,21.7
1977,3,1977-03-31,0,TOBS,17.8
1977,4,1977-04-01,0,TOBS,10.6
1977,4,1977-04-02,0.8,TOBS,11.1
1976,4,1976-04-07,0,TOBS,11.7
1976,4,1976-04-08,0,TOBS,8.9
1976,4,1976-04-09,0,TOBS,5
1976,4,1976-04-10,0,TOBS,7.8
1975,4,1975-04-02,0,TOBS,8.9
1975,4,1975-04-03,1.5,TOBS,15
1975,4,1975-04-04,2.8,TOBS,0
1975,4,1975-04-05,0,TOBS,0.6
1974,4,1974-04-01,0,TOBS,5
1974,4,1974-04-02,0,TOBS,7.8
1974,4,1974-04-03,1,TOBS,7.8
1974,4,1974-04-04,1.5,TOBS,19.4
1974,4,1974-04-05,3,TOBS,18.9
1973,4,1973-04-08,18.3,TOBS,8.3
1973,4,1973-04-09,1.5,TOBS,3.3
1973,4,1973-04-10,7.4,TOBS,8.3
1973,4,1973-04-11,0.3,TOBS,3.3
1973,4,1973-04-12,0,TOBS,4.4
1973,4,1973-04-13,3.3,TOBS,2.2
1972,4,1972-04-05,0,TOBS,16.7
1972,4,1972-04-06,0,TOBS,21.7
1972,4,1972-04-07,0,TOBS,1.1
1972,4,1972-04-08,10.4,TOBS,3.9
1971,4,1971-04-01,0,TOBS,22.2
1971,4,1971-04-02,7.6,TOBS,7.2
1971,4,1971-04-03,6.4,TOBS,15.6
1971,4,1971-04-04,0,TOBS,17.8
1970,4,1970-04-09,0,TOBS,22.8
1970,4,1970-04-10,0,TOBS,17.2
1970,4,1970-04-11,0,TOBS,13.9
1970,4,1970-04-12,0,TOBS,14.4
1969,4,1969-04-10,0,TOBS,18.3
1969,4,1969-04-11,0,TOBS,17.2
1969,4,1969-04-12,0,TOBS,14.4
1969,4,1969-04-13,0,TOBS,16.1
1968,4,1968-04-03,0,TOBS,12.2
1968,4,1968-04-04,0,TOBS,20
1968,4,1968-04-05,4.6,TOBS,14.4
1968,4,1968-04-06,0,TOBS,12.8
1968,4,1968-04-07,0,TOBS,16.1
1967,4,1967-04-06,0,TOBS,25.6
1967,4,1967-04-07,13.2,TOBS,17.2
1967,4,1967-04-08,0,TOBS,15
1967,4,1967-04-09,0,TOBS,17.8
1966,4,1966-04-14,3,TOBS,12.2
1966,4,1966-04-15,0,TOBS,13.9
1966,4,1966-04-16,0,TOBS,16.1
1966,4,1966-04-17,0,TOBS,18.3
1965,4,1965-04-08,0,TOBS,22.2
1965,4,1965-04-09,5.8,TOBS,12.8
1965,4,1965-04-10,0,TOBS,16.1
1965,4,1965-04-11,0,TOBS,12.8
1964,4,1964-04-09,0,TOBS,12.8
1964,4,1964-04-10,0,TOBS,17.8
1964,4,1964-04-11,0,TOBS,16.7
1964,4,1964-04-12,0,TOBS,19.4
1963,4,1963-04-04,0,TOBS,12.8
1963,4,1963-04-05,0,TOBS,13.9
1963,4,1963-04-06,0,TOBS,16.7
1963,4,1963-04-07,0,TOBS,18.3
1962,4,1962-04-05,0,TOBS,18.9
1962,4,1962-04-06,0,TOBS,19.4
1962,4,1962-04-07,26.7,TOBS,18.3
1962,4,1962-04-08,6.1,TOBS,13.9
1961,4,1961-04-06,0,TOBS,11.7
1961,4,1961-04-07,0,TOBS,10.6
1961,4,1961-04-08,0,TOBS,10.6
1961,4,1961-04-09,1,TOBS,5.6
1960,4,1960-04-07,0,TOBS,17.8
1960,4,1960-04-08,0,TOBS,18.3
1960,4,1960-04-09,0,TOBS,7.8
1960,4,1960-04-10,0,TOBS,9.4
1959,4,1959-04-09,2.3,TOBS,23.9
1959,4,1959-04-10,3,TOBS,15
1959,4,1959-04-11,22.9,TOBS,10.6
1959,4,1959-04-12,14.5,TOBS,0
